<?xml version="1.0" standalone="no"?>
<!DOCTYPE svg PUBLIC "-//W3C//DTD SVG 1.1//EN" "http://www.w3.org/Graphics/SVG/1.1/DTD/svg11.dtd" >
<!--
2015-9-16: Created with FontForge (http://fontforge.org)
-->
<svg xmlns="http://www.w3.org/2000/svg" xmlns:xlink="http://www.w3.org/1999/xlink" version="1.1">
<metadata>
Created by FontForge 20150828 at Wed Sep 16 23:59:28 2015
 By tb
Copyright (c) 2015, tb
</metadata>
<defs>
<font id="icons" horiz-adv-x="200" >
  <font-face 
    font-family="icons"
    font-weight="400"
    font-stretch="normal"
    units-per-em="512"
    panose-1="2 0 5 3 0 0 0 0 0 0"
    ascent="448"
    descent="-64"
    bbox="0 -55 511.25 448"
    underline-thickness="25.6"
    underline-position="-51.2"
    unicode-range="U+0020-F104"
  />
    <missing-glyph />
    <glyph glyph-name="space" unicode=" " 
 />
    <glyph glyph-name="uniF101" unicode="&#xf101;" horiz-adv-x="369" 
d="M335 154c0 -12 -9 -22 -21 -22h-259c-12 0 -22 10 -22 22v7c0 12 10 22 22 22h259c12 0 21 -10 21 -22v-7zM335 273v-7c0 -12 -9 -22 -21 -22h-259c-12 0 -22 10 -22 22v7c0 6 20 81 151 81c137 0 151 -75 151 -81zM95 296c-1 2 -6 2 -10 -1s-6 -6 -5 -8s6 -2 10 1
s6 6 5 8zM154 317c-5 2 -9 2 -10 0s1 -6 6 -8s10 -1 11 1s-2 5 -7 7zM196 288c-3 4 -6 6 -8 5s-3 -6 0 -10s7 -6 9 -5s2 6 -1 10zM246 334c-1 2 -6 2 -10 -1s-7 -6 -6 -8s6 -2 10 1s7 6 6 8zM289 282c-5 2 -9 1 -10 -1s1 -5 6 -7s9 -2 10 0s-1 6 -6 8zM369 216v0
c0 -5 -5 -10 -10 -10h-349c-5 0 -10 5 -10 10v0c0 5 5 10 10 10h349c5 0 10 -5 10 -10z" />
    <glyph glyph-name="uniF100" unicode="&#xf100;" horiz-adv-x="494" 
d="M467 -55h-440c-15 0 -27 12 -27 27v440c0 15 12 27 27 27h440c15 0 27 -12 27 -27v-440c0 -15 -12 -27 -27 -27zM341 -55v191h64l10 75h-74v48c0 22 6 36 37 36h40v67c-7 1 -31 3 -58 3c-57 0 -96 -35 -96 -99v-55h-64v-75h64v-191h77z" />
    <glyph glyph-name="uniF104" unicode="&#xf104;" horiz-adv-x="512" 
d="M506 346c7 -8 7 -13 0 -21l-50 -50l-29 29l-30 -29l-29 29l-28 -28l-29 29l-39 -38h-48c-21 -36 -60 -61 -104 -61c-66 0 -120 54 -120 121s54 121 120 121c44 0 83 -25 104 -61h241zM67 295c17 0 32 15 32 33s-15 32 -32 32c-18 0 -31 -14 -31 -32s13 -33 31 -33z" />
    <glyph glyph-name="uniF102" unicode="&#xf102;" horiz-adv-x="268" 
d="M266 146c1 -1 2 -3 2 -5c0 -3 -3 -6 -6 -6h-256c-2 0 -4 1 -5 3s-1 5 0 7l125 168l-21 28c-2 3 -2 7 1 9s7 2 9 -1l19 -25l18 25c2 3 6 3 9 1s3 -6 1 -9l-20 -28zM82 233l-64 -86h65l-10 35v1v0v1v0v1v1h1v1v0l1 1v0v1h1v0l1 1v0l51 19v86l-46 -62v0zM122 194l-35 -14
l7 -25zM103 147v0h62l-31 42zM146 194l28 -39l7 25zM185 147h64l-62 84l-1 2l-46 61v-85l51 -19v0v-1h1v0l1 -1v0l1 -1v0v-1v0v-1v-1v0v-1v0v-1z" />
  </font>
</defs></svg>
